{
  "EmulatorAppExe": "pcsws.exe",
  //"EmulatorAppExe": "Attachmate.Emulation.Frame.exe", 
  "PostApiUrl": "http://localhost:4012/v1/sendMainFramerecordersteps",
  "LoadAdapters": "pcsws.exe",
  //"LoadAdapters": "Attachmate.Emulation.Frame.exe",
  "IntializeHL2Dll": "C:/Program Files (x86)/IBM/Personal Communications/WHLAPI32.dll",
  //"IntializeHL2Dll": "C:/Program Files (x86)/Micro Focus/Reflection/Whlapi32.dll",
  "IntializeHL2Dll32": "C:/Program Files/IBM/Personal Communications/WHLAPI32.dll", 
  //"IntializeHL2Dll_32": "C:/Program Files (x86)/Micro Focus/Reflection/Whlapi32.dll",
  "EventType_TypeText": "TypeText",
 "KeyCombinations" :"9|12|13|17|19|20|21|27|33|34|35|36|37|38|39|40|42|45|91|92|93|106|107|108|109|111|112|113|114|115|116|117|118|119|120|121|122|123|124|125|126|127|128|129|130|131|132|133|134|135|144|145|166|167|168|169|170|171|172|173|174|175|176|177|178|179|180|181|182|183","ModuleId":858,
"KeyCombinationsToIgnore":"8|16|46|160|161|65536|17|162|163|131072|18|164|165|262144",
"Length":4,
"From_Position":3,
 "OpenSessionPath":"C:/Users/Dell/Desktop/sessionA.WS"
//"OpenSessionPath":"C:/Users/Dell/Desktop/session.rd3x"
}