2020-05-08 14:11:42,569 [1] INFO  CaptureAppender [(null)] - IntializeHL2Dll :C:/Program Files (x86)/IBM/Personal Communications/WHLAPI32.dll WHLL 86 loaded
2020-05-08 14:11:42,569 [1] INFO  CaptureAppender [(null)] - IntializeHL2Dll :C:/Program Files (x86)/IBM/Personal Communications/WHLAPI32.dll WHLL 86 loaded
2020-05-08 14:11:42,580 [1] INFO  SimplyRecord.CaptureEventListener [(null)] - loaded:pcsws.exe
2020-05-08 14:12:28,754 [1] INFO  Emulator.EmulatorApp [(null)] - C:/Program Files (x86)/IBM/Personal Communications/WHLAPI32.dll:Initialization Success
2020-05-08 14:12:28,825 [1] INFO  Emulator.EmulatorControlFinder [(null)] - :CurrentSessionID : A
2020-05-08 14:12:28,825 [1] INFO  SimplyRecord.CaptureEventListener [(null)] - connected to session:A
2020-05-08 14:12:28,837 [1] INFO  Emulator.EmulatorControlFinder [(null)] - GetDefaultScreenName - Screen name = Welcome to PUB400.COM * your public IBM i server
2020-05-08 14:12:28,842 [1] INFO  SimplyRecord.CaptureEventListener [(null)] - label is=Your user name:
2020-05-08 14:12:32,781 [1] INFO  SimplyRecord.CaptureEventListener [(null)] - type text event
2020-05-08 14:12:32,897 [1] INFO  SimplyRecord.MainForm [(null)] -  Captured Data afterEvery Step 1 :{
  "Position": {
    "iRow": 5,
    "iCol": 25
  },
  "IsProtected": false,
  "Label": "Your user name:",
  "LabelPosition": "5,25",
  "LabelLength": "15",
  "captureScreenshot": false,
  "ClassName": "PCSWS:Pres:00400000",
  "ControlCordinates": "0,100,960,337",
  "ControlData": "shreyag",
  "ControlId": "2",
  "ControlName": "",
  "ControlType": null,
  "createdBy": null,
  "CursorLocation": "345",
  "customerId": 0,
  "DialogName": null,
  "EventData": null,
  "EventType": "TypeText",
  "ExeName": "pcsws.exe",
  "name": null,
  "objectId": 0,
  "parameterName": null,
  "Path": "C:\\Program Files (x86)\\IBM\\Personal Communications\\pcsws.exe",
  "projectId": 0,
  "ScreenName": "Welcome to PUB400.COM * your public IBM i server",
  "SessionName": "A",
  "StepNumber": 2,
  "userId": 0,
  "WindowCaption": "Session A - [24 x 80]"
}
2020-05-08 14:12:33,949 [1] INFO  SimplyRecord.pushtoAgent [(null)] - Response for : 1 from:http://localhost:4012/v1/sendMainFramerecordersteps is:{"success":true}



2020-05-08 14:12:33,950 [1] INFO  SimplyRecord.pushtoAgent [(null)] - creating a new object for STEPNUMBER:1
2020-05-08 14:12:34,383 [1] INFO  SimplyRecord.pushtoAgent [(null)] - Response for : 2 from:http://localhost:4012/v1/sendMainFramerecordersteps is:{"success":true}



2020-05-08 14:12:34,383 [1] INFO  SimplyRecord.pushtoAgent [(null)] - creating a new object for STEPNUMBER:2
2020-05-08 14:12:34,384 [1] INFO  SimplyRecord.CaptureEventListener [(null)] - creating keyboard action
2020-05-08 14:12:34,410 [1] INFO  Emulator.EmulatorControlFinder [(null)] - GetDefaultScreenName - Screen name = Welcome to PUB400.COM * your public IBM i server
2020-05-08 14:12:34,410 [1] INFO  SimplyRecord.CaptureEventListener [(null)] - OnCaptureEvent at keydown
2020-05-08 14:12:34,411 [1] INFO  SimplyRecord.MainForm [(null)] -  Captured Data afterEvery Step 1 :{
  "Position": {
    "iRow": 0,
    "iCol": 0
  },
  "IsProtected": false,
  "Label": null,
  "LabelPosition": null,
  "LabelLength": null,
  "captureScreenshot": false,
  "ClassName": "PCSWS:Pres:00400000",
  "ControlCordinates": "0,100,960,337",
  "ControlData": "Tab",
  "ControlId": "2",
  "ControlName": "",
  "ControlType": null,
  "createdBy": null,
  "CursorLocation": null,
  "customerId": 0,
  "DialogName": null,
  "EventData": null,
  "EventType": "KeyBoardAction",
  "ExeName": "pcsws.exe",
  "name": null,
  "objectId": 0,
  "parameterName": null,
  "Path": "C:\\Program Files (x86)\\IBM\\Personal Communications\\pcsws.exe",
  "projectId": 0,
  "ScreenName": "Welcome to PUB400.COM * your public IBM i server",
  "SessionName": "A",
  "StepNumber": 3,
  "userId": 0,
  "WindowCaption": "Session A - [24 x 80]"
}
2020-05-08 14:12:34,446 [1] INFO  SimplyRecord.pushtoAgent [(null)] - Response for : 3 from:http://localhost:4012/v1/sendMainFramerecordersteps is:{"success":true}



2020-05-08 14:12:34,447 [1] INFO  SimplyRecord.pushtoAgent [(null)] - creating a new object for STEPNUMBER:3
2020-05-08 14:12:35,536 [1] INFO  SimplyRecord.CaptureEventListener [(null)] - connected to session:A
2020-05-08 14:12:35,538 [1] INFO  Emulator.EmulatorControlFinder [(null)] - GetDefaultScreenName - Screen name = Welcome to PUB400.COM * your public IBM i server
2020-05-08 14:12:35,540 [1] INFO  SimplyRecord.CaptureEventListener [(null)] - label is=Password (max. 128):
2020-05-08 14:12:40,776 [1] INFO  SimplyRecord.CaptureEventListener [(null)] - type text event
2020-05-08 14:12:40,777 [1] INFO  SimplyRecord.MainForm [(null)] -  Captured Data afterEvery Step 1 :{
  "Position": {
    "iRow": 6,
    "iCol": 25
  },
  "IsProtected": false,
  "Label": "Password (max. 128):",
  "LabelPosition": "6,25",
  "LabelLength": "20",
  "captureScreenshot": false,
  "ClassName": "PCSWS:Pres:00400000",
  "ControlCordinates": "0,100,960,337",
  "ControlData": "simplify123",
  "ControlId": "2",
  "ControlName": "",
  "ControlType": null,
  "createdBy": null,
  "CursorLocation": "425",
  "customerId": 0,
  "DialogName": null,
  "EventData": null,
  "EventType": "TypeText",
  "ExeName": "pcsws.exe",
  "name": null,
  "objectId": 0,
  "parameterName": null,
  "Path": "C:\\Program Files (x86)\\IBM\\Personal Communications\\pcsws.exe",
  "projectId": 0,
  "ScreenName": "Welcome to PUB400.COM * your public IBM i server",
  "SessionName": "A",
  "StepNumber": 4,
  "userId": 0,
  "WindowCaption": "Session A - [24 x 80]"
}
2020-05-08 14:12:40,792 [1] INFO  SimplyRecord.pushtoAgent [(null)] - Response for : 4 from:http://localhost:4012/v1/sendMainFramerecordersteps is:{"success":true}



2020-05-08 14:12:40,792 [1] INFO  SimplyRecord.pushtoAgent [(null)] - creating a new object for STEPNUMBER:4
2020-05-08 14:12:40,793 [1] INFO  SimplyRecord.CaptureEventListener [(null)] - creating keyboard action
2020-05-08 14:12:40,802 [1] INFO  Emulator.EmulatorControlFinder [(null)] - GetDefaultScreenName - Screen name = Welcome to PUB400.COM * your public IBM i server
2020-05-08 14:12:40,803 [1] INFO  SimplyRecord.CaptureEventListener [(null)] - OnCaptureEvent at keydown
2020-05-08 14:12:40,803 [1] INFO  SimplyRecord.MainForm [(null)] -  Captured Data afterEvery Step 1 :{
  "Position": {
    "iRow": 0,
    "iCol": 0
  },
  "IsProtected": false,
  "Label": null,
  "LabelPosition": null,
  "LabelLength": null,
  "captureScreenshot": false,
  "ClassName": "PCSWS:Pres:00400000",
  "ControlCordinates": "0,100,960,337",
  "ControlData": "Return",
  "ControlId": "2",
  "ControlName": "",
  "ControlType": null,
  "createdBy": null,
  "CursorLocation": null,
  "customerId": 0,
  "DialogName": null,
  "EventData": null,
  "EventType": "KeyBoardAction",
  "ExeName": "pcsws.exe",
  "name": null,
  "objectId": 0,
  "parameterName": null,
  "Path": "C:\\Program Files (x86)\\IBM\\Personal Communications\\pcsws.exe",
  "projectId": 0,
  "ScreenName": "Welcome to PUB400.COM * your public IBM i server",
  "SessionName": "A",
  "StepNumber": 5,
  "userId": 0,
  "WindowCaption": "Session A - [24 x 80]"
}
2020-05-08 14:12:40,831 [1] INFO  SimplyRecord.pushtoAgent [(null)] - Response for : 5 from:http://localhost:4012/v1/sendMainFramerecordersteps is:{"success":true}



2020-05-08 14:12:40,832 [1] INFO  SimplyRecord.pushtoAgent [(null)] - creating a new object for STEPNUMBER:5
2020-05-08 14:12:47,037 [1] INFO  SimplyRecord.CaptureEventListener [(null)] - connected to session:A
2020-05-08 14:12:47,038 [1] INFO  Emulator.EmulatorControlFinder [(null)] - GetDefaultScreenName - Screen name = MAIN                           IBM i Main Menu
2020-05-08 14:12:47,040 [1] INFO  SimplyRecord.CaptureEventListener [(null)] - label is====>
2020-05-08 14:12:47,402 [1] INFO  SimplyRecord.CaptureEventListener [(null)] - type text event
2020-05-08 14:12:47,402 [1] INFO  SimplyRecord.MainForm [(null)] -  Captured Data afterEvery Step 1 :{
  "Position": {
    "iRow": 20,
    "iCol": 7
  },
  "IsProtected": false,
  "Label": "===>",
  "LabelPosition": "20,7",
  "LabelLength": "4",
  "captureScreenshot": false,
  "ClassName": "PCSWS:Pres:00400000",
  "ControlCordinates": "0,100,960,337",
  "ControlData": "1",
  "ControlId": "2",
  "ControlName": "",
  "ControlType": null,
  "createdBy": null,
  "CursorLocation": "1527",
  "customerId": 0,
  "DialogName": null,
  "EventData": null,
  "EventType": "TypeText",
  "ExeName": "pcsws.exe",
  "name": null,
  "objectId": 0,
  "parameterName": null,
  "Path": "C:\\Program Files (x86)\\IBM\\Personal Communications\\pcsws.exe",
  "projectId": 0,
  "ScreenName": "MAIN                           IBM i Main Menu",
  "SessionName": "A",
  "StepNumber": 6,
  "userId": 0,
  "WindowCaption": "Session A - [24 x 80]"
}
2020-05-08 14:12:47,422 [1] INFO  SimplyRecord.pushtoAgent [(null)] - Response for : 6 from:http://localhost:4012/v1/sendMainFramerecordersteps is:{"success":true}



2020-05-08 14:12:47,423 [1] INFO  SimplyRecord.pushtoAgent [(null)] - creating a new object for STEPNUMBER:6
2020-05-08 14:12:47,423 [1] INFO  SimplyRecord.CaptureEventListener [(null)] - creating keyboard action
2020-05-08 14:12:47,430 [1] INFO  Emulator.EmulatorControlFinder [(null)] - GetDefaultScreenName - Screen name = MAIN                           IBM i Main Menu
2020-05-08 14:12:47,431 [1] INFO  SimplyRecord.CaptureEventListener [(null)] - OnCaptureEvent at keydown
2020-05-08 14:12:47,431 [1] INFO  SimplyRecord.MainForm [(null)] -  Captured Data afterEvery Step 1 :{
  "Position": {
    "iRow": 0,
    "iCol": 0
  },
  "IsProtected": false,
  "Label": null,
  "LabelPosition": null,
  "LabelLength": null,
  "captureScreenshot": false,
  "ClassName": "PCSWS:Pres:00400000",
  "ControlCordinates": "0,100,960,337",
  "ControlData": "Return",
  "ControlId": "2",
  "ControlName": "",
  "ControlType": null,
  "createdBy": null,
  "CursorLocation": null,
  "customerId": 0,
  "DialogName": null,
  "EventData": null,
  "EventType": "KeyBoardAction",
  "ExeName": "pcsws.exe",
  "name": null,
  "objectId": 0,
  "parameterName": null,
  "Path": "C:\\Program Files (x86)\\IBM\\Personal Communications\\pcsws.exe",
  "projectId": 0,
  "ScreenName": "MAIN                           IBM i Main Menu",
  "SessionName": "A",
  "StepNumber": 7,
  "userId": 0,
  "WindowCaption": "Session A - [24 x 80]"
}
2020-05-08 14:12:47,452 [1] INFO  SimplyRecord.pushtoAgent [(null)] - Response for : 7 from:http://localhost:4012/v1/sendMainFramerecordersteps is:{"success":true}



2020-05-08 14:12:47,452 [1] INFO  SimplyRecord.pushtoAgent [(null)] - creating a new object for STEPNUMBER:7
2020-05-08 14:12:50,415 [1] INFO  SimplyRecord.CaptureEventListener [(null)] - connected to session:A
2020-05-08 14:12:50,416 [1] INFO  Emulator.EmulatorControlFinder [(null)] - GetDefaultScreenName - Screen name = USER                              User Tasks
2020-05-08 14:12:50,417 [1] INFO  SimplyRecord.CaptureEventListener [(null)] - label is====>
2020-05-08 14:12:52,215 [1] INFO  SimplyRecord.CaptureEventListener [(null)] - type text event
2020-05-08 14:12:52,215 [1] INFO  SimplyRecord.MainForm [(null)] -  Captured Data afterEvery Step 1 :{
  "Position": {
    "iRow": 20,
    "iCol": 7
  },
  "IsProtected": false,
  "Label": "===>",
  "LabelPosition": "20,7",
  "LabelLength": "4",
  "captureScreenshot": false,
  "ClassName": "PCSWS:Pres:00400000",
  "ControlCordinates": "0,100,960,337",
  "ControlData": "90",
  "ControlId": "2",
  "ControlName": "",
  "ControlType": null,
  "createdBy": null,
  "CursorLocation": "1527",
  "customerId": 0,
  "DialogName": null,
  "EventData": null,
  "EventType": "TypeText",
  "ExeName": "pcsws.exe",
  "name": null,
  "objectId": 0,
  "parameterName": null,
  "Path": "C:\\Program Files (x86)\\IBM\\Personal Communications\\pcsws.exe",
  "projectId": 0,
  "ScreenName": "USER                              User Tasks",
  "SessionName": "A",
  "StepNumber": 8,
  "userId": 0,
  "WindowCaption": "Session A - [24 x 80]"
}
2020-05-08 14:12:52,232 [1] INFO  SimplyRecord.pushtoAgent [(null)] - Response for : 8 from:http://localhost:4012/v1/sendMainFramerecordersteps is:{"success":true}



2020-05-08 14:12:52,233 [1] INFO  SimplyRecord.pushtoAgent [(null)] - creating a new object for STEPNUMBER:8
2020-05-08 14:12:52,233 [1] INFO  SimplyRecord.CaptureEventListener [(null)] - creating keyboard action
2020-05-08 14:12:52,244 [1] INFO  Emulator.EmulatorControlFinder [(null)] - GetDefaultScreenName - Screen name = USER                              User Tasks
2020-05-08 14:12:52,245 [1] INFO  SimplyRecord.CaptureEventListener [(null)] - OnCaptureEvent at keydown
2020-05-08 14:12:52,245 [1] INFO  SimplyRecord.MainForm [(null)] -  Captured Data afterEvery Step 1 :{
  "Position": {
    "iRow": 0,
    "iCol": 0
  },
  "IsProtected": false,
  "Label": null,
  "LabelPosition": null,
  "LabelLength": null,
  "captureScreenshot": false,
  "ClassName": "PCSWS:Pres:00400000",
  "ControlCordinates": "0,100,960,337",
  "ControlData": "Return",
  "ControlId": "2",
  "ControlName": "",
  "ControlType": null,
  "createdBy": null,
  "CursorLocation": null,
  "customerId": 0,
  "DialogName": null,
  "EventData": null,
  "EventType": "KeyBoardAction",
  "ExeName": "pcsws.exe",
  "name": null,
  "objectId": 0,
  "parameterName": null,
  "Path": "C:\\Program Files (x86)\\IBM\\Personal Communications\\pcsws.exe",
  "projectId": 0,
  "ScreenName": "USER                              User Tasks",
  "SessionName": "A",
  "StepNumber": 9,
  "userId": 0,
  "WindowCaption": "Session A - [24 x 80]"
}
2020-05-08 14:12:52,263 [1] INFO  SimplyRecord.pushtoAgent [(null)] - Response for : 9 from:http://localhost:4012/v1/sendMainFramerecordersteps is:{"success":true}



2020-05-08 14:12:52,263 [1] INFO  SimplyRecord.pushtoAgent [(null)] - creating a new object for STEPNUMBER:9
2020-05-08 14:12:57,653 [1] ERROR SimplyRecord.CaptureEventListener [(null)] -  Exception :  FillWindowDetails
System.ComponentModel.Win32Exception (0x80004005): A 32 bit processes cannot access modules of a 64 bit process.
   at System.Diagnostics.NtProcessManager.GetModuleInfos(Int32 processId, Boolean firstModuleOnly)
   at System.Diagnostics.NtProcessManager.GetFirstModuleInfo(Int32 processId)
   at System.Diagnostics.Process.get_MainModule()
   at SimplyRecord.CaptureEventListener.FillWindowDetails(Boolean isKeyEvent) in D:\Balaraj\Mainframe recorder\04-04-2020\mf-rec-playback\Record\SimplyRecord\CaptureEventListener.cs:line 309
2020-05-08 14:12:57,706 [1] INFO  SimplyRecord.CaptureEventListener [(null)] - connected to session:A
2020-05-08 14:12:57,707 [1] INFO  Emulator.EmulatorControlFinder [(null)] - GetDefaultScreenName - Screen name = Welcome to PUB400.COM * your public IBM i server
2020-05-08 14:12:57,708 [1] INFO  SimplyRecord.MainForm [(null)] -  Captured Data afterEvery Step 1 :{
  "Position": {
    "iRow": 5,
    "iCol": 25
  },
  "IsProtected": false,
  "Label": null,
  "LabelPosition": null,
  "LabelLength": null,
  "captureScreenshot": false,
  "ClassName": "",
  "ControlCordinates": "554,738,37,30",
  "ControlData": null,
  "ControlId": "D:\\Mobile\\sqa-mob-agent-win\\libs\\MainFrame_RP\\Record\\SimplyRecord.exe",
  "ControlName": "SimplyRecord - 1 running window",
  "ControlType": null,
  "createdBy": null,
  "CursorLocation": "345",
  "customerId": 0,
  "DialogName": null,
  "EventData": null,
  "EventType": "Click",
  "ExeName": null,
  "name": null,
  "objectId": 0,
  "parameterName": null,
  "Path": null,
  "projectId": 0,
  "ScreenName": "Welcome to PUB400.COM * your public IBM i server",
  "SessionName": "A",
  "StepNumber": 10,
  "userId": 0,
  "WindowCaption": ""
}
2020-05-08 14:12:57,725 [1] INFO  SimplyRecord.pushtoAgent [(null)] - Response for : 10 from:http://localhost:4012/v1/sendMainFramerecordersteps is:{"success":true}



2020-05-08 14:12:57,725 [1] INFO  SimplyRecord.pushtoAgent [(null)] - creating a new object for STEPNUMBER:10
2020-05-08 14:13:01,939 [1] INFO  SimplyRecord.CaptureEventListener [(null)] - connected to session:A
2020-05-08 14:13:01,940 [1] INFO  Emulator.EmulatorControlFinder [(null)] - GetDefaultScreenName - Screen name = Welcome to PUB400.COM * your public IBM i server
2020-05-08 14:13:01,947 [1] INFO  SimplyRecord.CaptureEventListener [(null)] -  messge: stopping event listener.
2020-05-08 14:13:01,949 [1] INFO  SimplyRecord.CaptureEventListener [(null)] -  messge: stopped event listener.
2020-05-08 14:13:27,015 [1] INFO  CaptureAppender [(null)] - IntializeHL2Dll :C:/Program Files (x86)/IBM/Personal Communications/WHLAPI32.dll WHLL 86 loaded
2020-05-08 14:13:27,015 [1] INFO  CaptureAppender [(null)] - IntializeHL2Dll :C:/Program Files (x86)/IBM/Personal Communications/WHLAPI32.dll WHLL 86 loaded
2020-05-08 14:13:27,024 [1] INFO  SimplyRecord.CaptureEventListener [(null)] - loaded:pcsws.exe
2020-05-08 14:13:45,634 [1] INFO  Emulator.EmulatorApp [(null)] - C:/Program Files (x86)/IBM/Personal Communications/WHLAPI32.dll:Initialization Success
2020-05-08 14:13:45,698 [1] INFO  Emulator.EmulatorControlFinder [(null)] - :CurrentSessionID : A
2020-05-08 14:13:45,699 [1] INFO  SimplyRecord.CaptureEventListener [(null)] - connected to session:A
2020-05-08 14:13:45,704 [1] INFO  Emulator.EmulatorControlFinder [(null)] - GetDefaultScreenName - Screen name = Welcome to PUB400.COM * your public IBM i server
2020-05-08 14:13:45,708 [1] INFO  SimplyRecord.CaptureEventListener [(null)] - label is=Your user name:
2020-05-08 14:13:49,783 [1] INFO  SimplyRecord.CaptureEventListener [(null)] - type text event
2020-05-08 14:13:49,911 [1] INFO  SimplyRecord.MainForm [(null)] -  Captured Data afterEvery Step 1 :{
  "Position": {
    "iRow": 5,
    "iCol": 25
  },
  "IsProtected": false,
  "Label": "Your user name:",
  "LabelPosition": "5,25",
  "LabelLength": "15",
  "captureScreenshot": false,
  "ClassName": "PCSWS:Pres:00400000",
  "ControlCordinates": "0,100,960,337",
  "ControlData": "shreyag",
  "ControlId": "2",
  "ControlName": "",
  "ControlType": null,
  "createdBy": null,
  "CursorLocation": "345",
  "customerId": 0,
  "DialogName": null,
  "EventData": null,
  "EventType": "TypeText",
  "ExeName": "pcsws.exe",
  "name": null,
  "objectId": 0,
  "parameterName": null,
  "Path": "C:\\Program Files (x86)\\IBM\\Personal Communications\\pcsws.exe",
  "projectId": 0,
  "ScreenName": "Welcome to PUB400.COM * your public IBM i server",
  "SessionName": "A",
  "StepNumber": 2,
  "userId": 0,
  "WindowCaption": "Session A - [24 x 80]"
}
2020-05-08 14:13:49,972 [1] INFO  SimplyRecord.pushtoAgent [(null)] - Response for : 1 from:http://localhost:4012/v1/sendMainFramerecordersteps is:{"success":true}



2020-05-08 14:13:49,973 [1] INFO  SimplyRecord.pushtoAgent [(null)] - creating a new object for STEPNUMBER:1
2020-05-08 14:13:50,338 [1] INFO  SimplyRecord.pushtoAgent [(null)] - Response for : 2 from:http://localhost:4012/v1/sendMainFramerecordersteps is:{"success":true}



2020-05-08 14:13:50,339 [1] INFO  SimplyRecord.pushtoAgent [(null)] - creating a new object for STEPNUMBER:2
2020-05-08 14:13:50,339 [1] INFO  SimplyRecord.CaptureEventListener [(null)] - creating keyboard action
2020-05-08 14:13:50,356 [1] INFO  Emulator.EmulatorControlFinder [(null)] - GetDefaultScreenName - Screen name = Welcome to PUB400.COM * your public IBM i server
2020-05-08 14:13:50,357 [1] INFO  SimplyRecord.CaptureEventListener [(null)] - OnCaptureEvent at keydown
2020-05-08 14:13:50,357 [1] INFO  SimplyRecord.MainForm [(null)] -  Captured Data afterEvery Step 1 :{
  "Position": {
    "iRow": 0,
    "iCol": 0
  },
  "IsProtected": false,
  "Label": null,
  "LabelPosition": null,
  "LabelLength": null,
  "captureScreenshot": false,
  "ClassName": "PCSWS:Pres:00400000",
  "ControlCordinates": "0,100,960,337",
  "ControlData": "Tab",
  "ControlId": "2",
  "ControlName": "",
  "ControlType": null,
  "createdBy": null,
  "CursorLocation": null,
  "customerId": 0,
  "DialogName": null,
  "EventData": null,
  "EventType": "KeyBoardAction",
  "ExeName": "pcsws.exe",
  "name": null,
  "objectId": 0,
  "parameterName": null,
  "Path": "C:\\Program Files (x86)\\IBM\\Personal Communications\\pcsws.exe",
  "projectId": 0,
  "ScreenName": "Welcome to PUB400.COM * your public IBM i server",
  "SessionName": "A",
  "StepNumber": 3,
  "userId": 0,
  "WindowCaption": "Session A - [24 x 80]"
}
2020-05-08 14:13:50,376 [1] INFO  SimplyRecord.pushtoAgent [(null)] - Response for : 3 from:http://localhost:4012/v1/sendMainFramerecordersteps is:{"success":true}



2020-05-08 14:13:50,377 [1] INFO  SimplyRecord.pushtoAgent [(null)] - creating a new object for STEPNUMBER:3
2020-05-08 14:13:52,058 [1] INFO  SimplyRecord.CaptureEventListener [(null)] - connected to session:A
2020-05-08 14:13:52,059 [1] INFO  Emulator.EmulatorControlFinder [(null)] - GetDefaultScreenName - Screen name = Welcome to PUB400.COM * your public IBM i server
2020-05-08 14:13:52,062 [1] INFO  SimplyRecord.CaptureEventListener [(null)] - label is=Password (max. 128):
2020-05-08 14:13:57,407 [1] INFO  SimplyRecord.CaptureEventListener [(null)] - type text event
2020-05-08 14:13:57,408 [1] INFO  SimplyRecord.MainForm [(null)] -  Captured Data afterEvery Step 1 :{
  "Position": {
    "iRow": 6,
    "iCol": 25
  },
  "IsProtected": false,
  "Label": "Password (max. 128):",
  "LabelPosition": "6,25",
  "LabelLength": "20",
  "captureScreenshot": false,
  "ClassName": "PCSWS:Pres:00400000",
  "ControlCordinates": "0,100,960,337",
  "ControlData": "simplify123",
  "ControlId": "2",
  "ControlName": "",
  "ControlType": null,
  "createdBy": null,
  "CursorLocation": "425",
  "customerId": 0,
  "DialogName": null,
  "EventData": null,
  "EventType": "TypeText",
  "ExeName": "pcsws.exe",
  "name": null,
  "objectId": 0,
  "parameterName": null,
  "Path": "C:\\Program Files (x86)\\IBM\\Personal Communications\\pcsws.exe",
  "projectId": 0,
  "ScreenName": "Welcome to PUB400.COM * your public IBM i server",
  "SessionName": "A",
  "StepNumber": 4,
  "userId": 0,
  "WindowCaption": "Session A - [24 x 80]"
}
2020-05-08 14:13:57,438 [1] INFO  SimplyRecord.pushtoAgent [(null)] - Response for : 4 from:http://localhost:4012/v1/sendMainFramerecordersteps is:{"success":true}



2020-05-08 14:13:57,439 [1] INFO  SimplyRecord.pushtoAgent [(null)] - creating a new object for STEPNUMBER:4
2020-05-08 14:13:57,440 [1] INFO  SimplyRecord.CaptureEventListener [(null)] - creating keyboard action
2020-05-08 14:13:57,451 [1] INFO  Emulator.EmulatorControlFinder [(null)] - GetDefaultScreenName - Screen name = Welcome to PUB400.COM * your public IBM i server
2020-05-08 14:13:57,451 [1] INFO  SimplyRecord.CaptureEventListener [(null)] - OnCaptureEvent at keydown
2020-05-08 14:13:57,452 [1] INFO  SimplyRecord.MainForm [(null)] -  Captured Data afterEvery Step 1 :{
  "Position": {
    "iRow": 0,
    "iCol": 0
  },
  "IsProtected": false,
  "Label": null,
  "LabelPosition": null,
  "LabelLength": null,
  "captureScreenshot": false,
  "ClassName": "PCSWS:Pres:00400000",
  "ControlCordinates": "0,100,960,337",
  "ControlData": "Return",
  "ControlId": "2",
  "ControlName": "",
  "ControlType": null,
  "createdBy": null,
  "CursorLocation": null,
  "customerId": 0,
  "DialogName": null,
  "EventData": null,
  "EventType": "KeyBoardAction",
  "ExeName": "pcsws.exe",
  "name": null,
  "objectId": 0,
  "parameterName": null,
  "Path": "C:\\Program Files (x86)\\IBM\\Personal Communications\\pcsws.exe",
  "projectId": 0,
  "ScreenName": "Welcome to PUB400.COM * your public IBM i server",
  "SessionName": "A",
  "StepNumber": 5,
  "userId": 0,
  "WindowCaption": "Session A - [24 x 80]"
}
2020-05-08 14:13:57,471 [1] INFO  SimplyRecord.pushtoAgent [(null)] - Response for : 5 from:http://localhost:4012/v1/sendMainFramerecordersteps is:{"success":true}



2020-05-08 14:13:57,471 [1] INFO  SimplyRecord.pushtoAgent [(null)] - creating a new object for STEPNUMBER:5
2020-05-08 14:14:03,035 [1] INFO  SimplyRecord.CaptureEventListener [(null)] - connected to session:A
2020-05-08 14:14:03,036 [1] INFO  Emulator.EmulatorControlFinder [(null)] - GetDefaultScreenName - Screen name = MAIN                           IBM i Main Menu
2020-05-08 14:14:03,038 [1] INFO  SimplyRecord.CaptureEventListener [(null)] - label is====>
2020-05-08 14:14:05,275 [1] INFO  SimplyRecord.CaptureEventListener [(null)] - type text event
2020-05-08 14:14:05,277 [1] INFO  SimplyRecord.MainForm [(null)] -  Captured Data afterEvery Step 1 :{
  "Position": {
    "iRow": 20,
    "iCol": 7
  },
  "IsProtected": false,
  "Label": "===>",
  "LabelPosition": "20,7",
  "LabelLength": "4",
  "captureScreenshot": false,
  "ClassName": "PCSWS:Pres:00400000",
  "ControlCordinates": "0,100,960,337",
  "ControlData": "1",
  "ControlId": "2",
  "ControlName": "",
  "ControlType": null,
  "createdBy": null,
  "CursorLocation": "1527",
  "customerId": 0,
  "DialogName": null,
  "EventData": null,
  "EventType": "TypeText",
  "ExeName": "pcsws.exe",
  "name": null,
  "objectId": 0,
  "parameterName": null,
  "Path": "C:\\Program Files (x86)\\IBM\\Personal Communications\\pcsws.exe",
  "projectId": 0,
  "ScreenName": "MAIN                           IBM i Main Menu",
  "SessionName": "A",
  "StepNumber": 6,
  "userId": 0,
  "WindowCaption": "Session A - [24 x 80]"
}
2020-05-08 14:14:05,302 [1] INFO  SimplyRecord.pushtoAgent [(null)] - Response for : 6 from:http://localhost:4012/v1/sendMainFramerecordersteps is:{"success":true}



2020-05-08 14:14:05,302 [1] INFO  SimplyRecord.pushtoAgent [(null)] - creating a new object for STEPNUMBER:6
2020-05-08 14:14:05,302 [1] INFO  SimplyRecord.CaptureEventListener [(null)] - creating keyboard action
2020-05-08 14:14:05,310 [1] INFO  Emulator.EmulatorControlFinder [(null)] - GetDefaultScreenName - Screen name = MAIN                           IBM i Main Menu
2020-05-08 14:14:05,310 [1] INFO  SimplyRecord.CaptureEventListener [(null)] - OnCaptureEvent at keydown
2020-05-08 14:14:05,310 [1] INFO  SimplyRecord.MainForm [(null)] -  Captured Data afterEvery Step 1 :{
  "Position": {
    "iRow": 0,
    "iCol": 0
  },
  "IsProtected": false,
  "Label": null,
  "LabelPosition": null,
  "LabelLength": null,
  "captureScreenshot": false,
  "ClassName": "PCSWS:Pres:00400000",
  "ControlCordinates": "0,100,960,337",
  "ControlData": "Return",
  "ControlId": "2",
  "ControlName": "",
  "ControlType": null,
  "createdBy": null,
  "CursorLocation": null,
  "customerId": 0,
  "DialogName": null,
  "EventData": null,
  "EventType": "KeyBoardAction",
  "ExeName": "pcsws.exe",
  "name": null,
  "objectId": 0,
  "parameterName": null,
  "Path": "C:\\Program Files (x86)\\IBM\\Personal Communications\\pcsws.exe",
  "projectId": 0,
  "ScreenName": "MAIN                           IBM i Main Menu",
  "SessionName": "A",
  "StepNumber": 7,
  "userId": 0,
  "WindowCaption": "Session A - [24 x 80]"
}
2020-05-08 14:14:05,324 [1] INFO  SimplyRecord.pushtoAgent [(null)] - Response for : 7 from:http://localhost:4012/v1/sendMainFramerecordersteps is:{"success":true}



2020-05-08 14:14:05,325 [1] INFO  SimplyRecord.pushtoAgent [(null)] - creating a new object for STEPNUMBER:7
2020-05-08 14:14:09,418 [1] INFO  SimplyRecord.CaptureEventListener [(null)] - connected to session:A
2020-05-08 14:14:09,419 [1] INFO  Emulator.EmulatorControlFinder [(null)] - GetDefaultScreenName - Screen name = USER                              User Tasks
2020-05-08 14:14:09,420 [1] INFO  SimplyRecord.CaptureEventListener [(null)] - label is====>
2020-05-08 14:14:11,716 [1] INFO  SimplyRecord.CaptureEventListener [(null)] - type text event
2020-05-08 14:14:11,716 [1] INFO  SimplyRecord.MainForm [(null)] -  Captured Data afterEvery Step 1 :{
  "Position": {
    "iRow": 20,
    "iCol": 7
  },
  "IsProtected": false,
  "Label": "===>",
  "LabelPosition": "20,7",
  "LabelLength": "4",
  "captureScreenshot": false,
  "ClassName": "PCSWS:Pres:00400000",
  "ControlCordinates": "0,100,960,337",
  "ControlData": "90",
  "ControlId": "2",
  "ControlName": "",
  "ControlType": null,
  "createdBy": null,
  "CursorLocation": "1527",
  "customerId": 0,
  "DialogName": null,
  "EventData": null,
  "EventType": "TypeText",
  "ExeName": "pcsws.exe",
  "name": null,
  "objectId": 0,
  "parameterName": null,
  "Path": "C:\\Program Files (x86)\\IBM\\Personal Communications\\pcsws.exe",
  "projectId": 0,
  "ScreenName": "USER                              User Tasks",
  "SessionName": "A",
  "StepNumber": 8,
  "userId": 0,
  "WindowCaption": "Session A - [24 x 80]"
}
2020-05-08 14:14:11,730 [1] INFO  SimplyRecord.pushtoAgent [(null)] - Response for : 8 from:http://localhost:4012/v1/sendMainFramerecordersteps is:{"success":true}



2020-05-08 14:14:11,730 [1] INFO  SimplyRecord.pushtoAgent [(null)] - creating a new object for STEPNUMBER:8
2020-05-08 14:14:11,730 [1] INFO  SimplyRecord.CaptureEventListener [(null)] - creating keyboard action
2020-05-08 14:14:11,738 [1] INFO  Emulator.EmulatorControlFinder [(null)] - GetDefaultScreenName - Screen name = USER                              User Tasks
2020-05-08 14:14:11,738 [1] INFO  SimplyRecord.CaptureEventListener [(null)] - OnCaptureEvent at keydown
2020-05-08 14:14:11,739 [1] INFO  SimplyRecord.MainForm [(null)] -  Captured Data afterEvery Step 1 :{
  "Position": {
    "iRow": 0,
    "iCol": 0
  },
  "IsProtected": false,
  "Label": null,
  "LabelPosition": null,
  "LabelLength": null,
  "captureScreenshot": false,
  "ClassName": "PCSWS:Pres:00400000",
  "ControlCordinates": "0,100,960,337",
  "ControlData": "Return",
  "ControlId": "2",
  "ControlName": "",
  "ControlType": null,
  "createdBy": null,
  "CursorLocation": null,
  "customerId": 0,
  "DialogName": null,
  "EventData": null,
  "EventType": "KeyBoardAction",
  "ExeName": "pcsws.exe",
  "name": null,
  "objectId": 0,
  "parameterName": null,
  "Path": "C:\\Program Files (x86)\\IBM\\Personal Communications\\pcsws.exe",
  "projectId": 0,
  "ScreenName": "USER                              User Tasks",
  "SessionName": "A",
  "StepNumber": 9,
  "userId": 0,
  "WindowCaption": "Session A - [24 x 80]"
}
2020-05-08 14:14:11,754 [1] INFO  SimplyRecord.pushtoAgent [(null)] - Response for : 9 from:http://localhost:4012/v1/sendMainFramerecordersteps is:{"success":true}



2020-05-08 14:14:11,754 [1] INFO  SimplyRecord.pushtoAgent [(null)] - creating a new object for STEPNUMBER:9
2020-05-08 14:14:19,093 [1] ERROR SimplyRecord.CaptureEventListener [(null)] -  Exception :  FillWindowDetails
System.ComponentModel.Win32Exception (0x80004005): A 32 bit processes cannot access modules of a 64 bit process.
   at System.Diagnostics.NtProcessManager.GetModuleInfos(Int32 processId, Boolean firstModuleOnly)
   at System.Diagnostics.NtProcessManager.GetFirstModuleInfo(Int32 processId)
   at System.Diagnostics.Process.get_MainModule()
   at SimplyRecord.CaptureEventListener.FillWindowDetails(Boolean isKeyEvent) in D:\Balaraj\Mainframe recorder\04-04-2020\mf-rec-playback\Record\SimplyRecord\CaptureEventListener.cs:line 309
2020-05-08 14:14:19,138 [1] INFO  SimplyRecord.CaptureEventListener [(null)] - connected to session:A
2020-05-08 14:14:19,139 [1] INFO  Emulator.EmulatorControlFinder [(null)] - GetDefaultScreenName - Screen name = Welcome to PUB400.COM * your public IBM i server
2020-05-08 14:14:19,139 [1] INFO  SimplyRecord.MainForm [(null)] -  Captured Data afterEvery Step 1 :{
  "Position": {
    "iRow": 5,
    "iCol": 25
  },
  "IsProtected": false,
  "Label": null,
  "LabelPosition": null,
  "LabelLength": null,
  "captureScreenshot": false,
  "ClassName": "",
  "ControlCordinates": "554,738,37,30",
  "ControlData": null,
  "ControlId": "D:\\Mobile\\sqa-mob-agent-win\\libs\\MainFrame_RP\\Record\\SimplyRecord.exe",
  "ControlName": "SimplyRecord - 1 running window",
  "ControlType": null,
  "createdBy": null,
  "CursorLocation": "345",
  "customerId": 0,
  "DialogName": null,
  "EventData": null,
  "EventType": "Click",
  "ExeName": null,
  "name": null,
  "objectId": 0,
  "parameterName": null,
  "Path": null,
  "projectId": 0,
  "ScreenName": "Welcome to PUB400.COM * your public IBM i server",
  "SessionName": "A",
  "StepNumber": 10,
  "userId": 0,
  "WindowCaption": ""
}
2020-05-08 14:14:19,159 [1] INFO  SimplyRecord.pushtoAgent [(null)] - Response for : 10 from:http://localhost:4012/v1/sendMainFramerecordersteps is:{"success":true}



2020-05-08 14:14:19,160 [1] INFO  SimplyRecord.pushtoAgent [(null)] - creating a new object for STEPNUMBER:10
2020-05-08 14:14:24,302 [1] INFO  SimplyRecord.CaptureEventListener [(null)] - connected to session:A
2020-05-08 14:14:24,304 [1] INFO  Emulator.EmulatorControlFinder [(null)] - GetDefaultScreenName - Screen name = Welcome to PUB400.COM * your public IBM i server
2020-05-08 14:14:24,312 [1] INFO  SimplyRecord.CaptureEventListener [(null)] -  messge: stopping event listener.
2020-05-08 14:14:24,314 [1] INFO  SimplyRecord.CaptureEventListener [(null)] -  messge: stopped event listener.
2020-05-08 14:40:58,458 [1] INFO  CaptureAppender [(null)] - IntializeHL2Dll :C:/Program Files (x86)/IBM/Personal Communications/WHLAPI32.dll WHLL 86 loaded
2020-05-08 14:40:58,458 [1] INFO  CaptureAppender [(null)] - IntializeHL2Dll :C:/Program Files (x86)/IBM/Personal Communications/WHLAPI32.dll WHLL 86 loaded
2020-05-08 14:40:58,472 [1] INFO  SimplyRecord.CaptureEventListener [(null)] - loaded:pcsws.exe
2020-05-08 14:41:08,797 [1] INFO  Emulator.EmulatorApp [(null)] - C:/Program Files (x86)/IBM/Personal Communications/WHLAPI32.dll:Initialization Success
2020-05-08 14:41:09,895 [1] INFO  Emulator.EmulatorControlFinder [(null)] - :CurrentSessionID : A
2020-05-08 14:41:09,897 [1] INFO  SimplyRecord.CaptureEventListener [(null)] - connected to session:A
2020-05-08 14:41:09,901 [1] INFO  Emulator.EmulatorControlFinder [(null)] - GetDefaultScreenName - Screen name = Welcome to PUB400.COM * your public IBM i server
2020-05-08 14:41:10,079 [1] INFO  SimplyRecord.MainForm [(null)] -  Captured Data afterEvery Step 1 :{
  "Position": {
    "iRow": 13,
    "iCol": 61
  },
  "IsProtected": true,
  "Label": null,
  "LabelPosition": null,
  "LabelLength": null,
  "captureScreenshot": false,
  "ClassName": "ToolbarWindow32",
  "ControlCordinates": "0,43,1366,57",
  "ControlData": null,
  "ControlId": "",
  "ControlName": "",
  "ControlType": null,
  "createdBy": null,
  "CursorLocation": "961",
  "customerId": 0,
  "DialogName": null,
  "EventData": null,
  "EventType": "Click",
  "ExeName": "pcsws.exe",
  "name": null,
  "objectId": 0,
  "parameterName": null,
  "Path": "C:\\Program Files (x86)\\IBM\\Personal Communications\\pcsws.exe",
  "projectId": 0,
  "ScreenName": "Welcome to PUB400.COM * your public IBM i server",
  "SessionName": "A",
  "StepNumber": 2,
  "userId": 0,
  "WindowCaption": "Session A - [24 x 80]"
}
2020-05-08 14:41:10,169 [1] INFO  SimplyRecord.pushtoAgent [(null)] - Response for : 1 from:http://localhost:4012/v1/sendMainFramerecordersteps is:{"success":true}



2020-05-08 14:41:10,171 [1] INFO  SimplyRecord.pushtoAgent [(null)] - creating a new object for STEPNUMBER:1
2020-05-08 14:41:10,540 [1] INFO  SimplyRecord.pushtoAgent [(null)] - Response for : 2 from:http://localhost:4012/v1/sendMainFramerecordersteps is:{"success":true}



2020-05-08 14:41:10,541 [1] INFO  SimplyRecord.pushtoAgent [(null)] - creating a new object for STEPNUMBER:2
2020-05-08 14:41:12,838 [1] ERROR SimplyRecord.CaptureEventListener [(null)] -  Exception :  FillWindowDetails
System.ComponentModel.Win32Exception (0x80004005): A 32 bit processes cannot access modules of a 64 bit process.
   at System.Diagnostics.NtProcessManager.GetModuleInfos(Int32 processId, Boolean firstModuleOnly)
   at System.Diagnostics.NtProcessManager.GetFirstModuleInfo(Int32 processId)
   at System.Diagnostics.Process.get_MainModule()
   at SimplyRecord.CaptureEventListener.FillWindowDetails(Boolean isKeyEvent) in D:\Balaraj\Mainframe recorder\04-04-2020\mf-rec-playback\Record\SimplyRecord\CaptureEventListener.cs:line 309
2020-05-08 14:41:14,944 [1] INFO  Emulator.EmulatorControlFinder [(null)] - An invalid host presentation space ID was entered
2020-05-08 14:41:16,954 [1] INFO  Emulator.EmulatorControlFinder [(null)] - An invalid host presentation space ID was entered
2020-05-08 14:41:16,954 [1] INFO  Emulator.EmulatorApp [(null)] - trying to connect to session A
2020-05-08 14:41:19,464 [1] INFO  Emulator.EmulatorControlFinder [(null)] - An invalid host presentation space ID was entered
2020-05-08 14:41:19,464 [1] INFO  Emulator.EmulatorApp [(null)] - trying to connect to session A
2020-05-08 14:41:21,974 [1] INFO  Emulator.EmulatorControlFinder [(null)] - An invalid host presentation space ID was entered
2020-05-08 14:41:21,974 [1] INFO  Emulator.EmulatorApp [(null)] - trying to connect to session A
2020-05-08 14:41:24,484 [1] INFO  Emulator.EmulatorControlFinder [(null)] - An invalid host presentation space ID was entered
2020-05-08 14:41:24,484 [1] INFO  Emulator.EmulatorApp [(null)] - trying to connect to session A
2020-05-08 14:41:26,994 [1] INFO  Emulator.EmulatorControlFinder [(null)] - An invalid host presentation space ID was entered
2020-05-08 14:41:26,994 [1] INFO  Emulator.EmulatorApp [(null)] - trying to connect to session A
2020-05-08 14:41:36,288 [1] INFO  CaptureAppender [(null)] - IntializeHL2Dll :C:/Program Files (x86)/IBM/Personal Communications/WHLAPI32.dll WHLL 86 loaded
2020-05-08 14:41:36,288 [1] INFO  CaptureAppender [(null)] - IntializeHL2Dll :C:/Program Files (x86)/IBM/Personal Communications/WHLAPI32.dll WHLL 86 loaded
2020-05-08 14:41:36,302 [1] INFO  SimplyRecord.CaptureEventListener [(null)] - loaded:pcsws.exe
2020-05-08 14:42:07,885 [1] INFO  Emulator.EmulatorApp [(null)] - C:/Program Files (x86)/IBM/Personal Communications/WHLAPI32.dll:Initialization Success
2020-05-08 14:42:07,954 [1] INFO  Emulator.EmulatorControlFinder [(null)] - :CurrentSessionID : A
2020-05-08 14:42:07,956 [1] INFO  SimplyRecord.CaptureEventListener [(null)] - connected to session:A
2020-05-08 14:42:07,960 [1] INFO  Emulator.EmulatorControlFinder [(null)] - GetDefaultScreenName - Screen name = Welcome to PUB400.COM * your public IBM i server
2020-05-08 14:42:07,964 [1] INFO  SimplyRecord.CaptureEventListener [(null)] - label is=Your user name:
2020-05-08 14:42:12,510 [1] INFO  SimplyRecord.CaptureEventListener [(null)] - type text event
2020-05-08 14:42:12,623 [1] INFO  SimplyRecord.MainForm [(null)] -  Captured Data afterEvery Step 1 :{
  "Position": {
    "iRow": 5,
    "iCol": 25
  },
  "IsProtected": false,
  "Label": "Your user name:",
  "LabelPosition": "5,25",
  "LabelLength": "15",
  "captureScreenshot": false,
  "ClassName": "PCSWS:Pres:00400000",
  "ControlCordinates": "3,107,1360,577",
  "ControlData": "pradeeprc",
  "ControlId": "2",
  "ControlName": "",
  "ControlType": null,
  "createdBy": null,
  "CursorLocation": "345",
  "customerId": 0,
  "DialogName": null,
  "EventData": null,
  "EventType": "TypeText",
  "ExeName": "pcsws.exe",
  "name": null,
  "objectId": 0,
  "parameterName": null,
  "Path": "C:\\Program Files (x86)\\IBM\\Personal Communications\\pcsws.exe",
  "projectId": 0,
  "ScreenName": "Welcome to PUB400.COM * your public IBM i server",
  "SessionName": "A",
  "StepNumber": 2,
  "userId": 0,
  "WindowCaption": "Session A - [24 x 80]"
}
2020-05-08 14:42:12,682 [1] INFO  SimplyRecord.pushtoAgent [(null)] - Response for : 1 from:http://localhost:4012/v1/sendMainFramerecordersteps is:{"success":true}



2020-05-08 14:42:12,682 [1] INFO  SimplyRecord.pushtoAgent [(null)] - creating a new object for STEPNUMBER:1
2020-05-08 14:42:13,049 [1] INFO  SimplyRecord.pushtoAgent [(null)] - Response for : 2 from:http://localhost:4012/v1/sendMainFramerecordersteps is:{"success":true}



2020-05-08 14:42:13,050 [1] INFO  SimplyRecord.pushtoAgent [(null)] - creating a new object for STEPNUMBER:2
2020-05-08 14:42:13,050 [1] INFO  SimplyRecord.CaptureEventListener [(null)] - creating keyboard action
2020-05-08 14:42:13,067 [1] INFO  SimplyRecord.CaptureEventListener [(null)] - connected to session:A
2020-05-08 14:42:13,068 [1] INFO  Emulator.EmulatorControlFinder [(null)] - GetDefaultScreenName - Screen name = Welcome to PUB400.COM * your public IBM i server
2020-05-08 14:42:13,070 [1] INFO  SimplyRecord.CaptureEventListener [(null)] - label is=Your user name:
2020-05-08 14:42:13,087 [1] INFO  Emulator.EmulatorControlFinder [(null)] - GetDefaultScreenName - Screen name = Welcome to PUB400.COM * your public IBM i server
2020-05-08 14:42:13,088 [1] INFO  SimplyRecord.CaptureEventListener [(null)] - OnCaptureEvent at keydown
2020-05-08 14:42:13,088 [1] INFO  SimplyRecord.MainForm [(null)] -  Captured Data afterEvery Step 1 :{
  "Position": {
    "iRow": 5,
    "iCol": 33
  },
  "IsProtected": false,
  "Label": "Your user name:",
  "LabelPosition": "5,33",
  "LabelLength": "15",
  "captureScreenshot": false,
  "ClassName": "PCSWS:Pres:00400000",
  "ControlCordinates": "3,107,1360,577",
  "ControlData": "Back",
  "ControlId": "2",
  "ControlName": "",
  "ControlType": null,
  "createdBy": null,
  "CursorLocation": "345",
  "customerId": 0,
  "DialogName": null,
  "EventData": null,
  "EventType": "KeyBoardAction",
  "ExeName": "pcsws.exe",
  "name": null,
  "objectId": 0,
  "parameterName": null,
  "Path": "C:\\Program Files (x86)\\IBM\\Personal Communications\\pcsws.exe",
  "projectId": 0,
  "ScreenName": "Welcome to PUB400.COM * your public IBM i server",
  "SessionName": "A",
  "StepNumber": 3,
  "userId": 0,
  "WindowCaption": "Session A - [24 x 80]"
}
2020-05-08 14:42:13,108 [1] INFO  SimplyRecord.pushtoAgent [(null)] - Response for : 3 from:http://localhost:4012/v1/sendMainFramerecordersteps is:{"success":true}



2020-05-08 14:42:13,109 [1] INFO  SimplyRecord.pushtoAgent [(null)] - creating a new object for STEPNUMBER:3
2020-05-08 14:42:21,290 [1] INFO  SimplyRecord.CaptureEventListener [(null)] - connected to session:A
2020-05-08 14:42:21,292 [1] INFO  Emulator.EmulatorControlFinder [(null)] - GetDefaultScreenName - Screen name = Welcome to PUB400.COM * your public IBM i server
2020-05-08 14:42:21,295 [1] INFO  SimplyRecord.CaptureEventListener [(null)] - label is=Your user name:
2020-05-08 14:42:21,295 [1] INFO  SimplyRecord.CaptureEventListener [(null)] - creating keyboard action
2020-05-08 14:42:21,303 [1] INFO  Emulator.EmulatorControlFinder [(null)] - GetDefaultScreenName - Screen name = Welcome to PUB400.COM * your public IBM i server
2020-05-08 14:42:21,303 [1] INFO  SimplyRecord.CaptureEventListener [(null)] - OnCaptureEvent at keydown
2020-05-08 14:42:21,303 [1] INFO  SimplyRecord.MainForm [(null)] -  Captured Data afterEvery Step 1 :{
  "Position": {
    "iRow": 0,
    "iCol": 0
  },
  "IsProtected": false,
  "Label": null,
  "LabelPosition": null,
  "LabelLength": null,
  "captureScreenshot": false,
  "ClassName": "PCSWS:Pres:00400000",
  "ControlCordinates": "3,107,1360,577",
  "ControlData": "Tab",
  "ControlId": "2",
  "ControlName": "",
  "ControlType": null,
  "createdBy": null,
  "CursorLocation": null,
  "customerId": 0,
  "DialogName": null,
  "EventData": null,
  "EventType": "KeyBoardAction",
  "ExeName": "pcsws.exe",
  "name": null,
  "objectId": 0,
  "parameterName": null,
  "Path": "C:\\Program Files (x86)\\IBM\\Personal Communications\\pcsws.exe",
  "projectId": 0,
  "ScreenName": "Welcome to PUB400.COM * your public IBM i server",
  "SessionName": "A",
  "StepNumber": 4,
  "userId": 0,
  "WindowCaption": "Session A - [24 x 80]"
}
2020-05-08 14:42:21,319 [1] INFO  SimplyRecord.pushtoAgent [(null)] - Response for : 4 from:http://localhost:4012/v1/sendMainFramerecordersteps is:{"success":true}



2020-05-08 14:42:21,319 [1] INFO  SimplyRecord.pushtoAgent [(null)] - creating a new object for STEPNUMBER:4
2020-05-08 14:42:24,399 [1] INFO  SimplyRecord.CaptureEventListener [(null)] - connected to session:A
2020-05-08 14:42:24,400 [1] INFO  Emulator.EmulatorControlFinder [(null)] - GetDefaultScreenName - Screen name = Welcome to PUB400.COM * your public IBM i server
2020-05-08 14:42:24,404 [1] INFO  SimplyRecord.CaptureEventListener [(null)] - label is=Password (max. 128):
2020-05-08 14:42:28,091 [1] INFO  SimplyRecord.CaptureEventListener [(null)] - type text event
2020-05-08 14:42:28,091 [1] INFO  SimplyRecord.MainForm [(null)] -  Captured Data afterEvery Step 1 :{
  "Position": {
    "iRow": 6,
    "iCol": 25
  },
  "IsProtected": false,
  "Label": "Password (max. 128):",
  "LabelPosition": "6,25",
  "LabelLength": "20",
  "captureScreenshot": false,
  "ClassName": "PCSWS:Pres:00400000",
  "ControlCordinates": "3,107,1360,577",
  "ControlData": "simplify456",
  "ControlId": "2",
  "ControlName": "",
  "ControlType": null,
  "createdBy": null,
  "CursorLocation": "425",
  "customerId": 0,
  "DialogName": null,
  "EventData": null,
  "EventType": "TypeText",
  "ExeName": "pcsws.exe",
  "name": null,
  "objectId": 0,
  "parameterName": null,
  "Path": "C:\\Program Files (x86)\\IBM\\Personal Communications\\pcsws.exe",
  "projectId": 0,
  "ScreenName": "Welcome to PUB400.COM * your public IBM i server",
  "SessionName": "A",
  "StepNumber": 5,
  "userId": 0,
  "WindowCaption": "Session A - [24 x 80]"
}
2020-05-08 14:42:28,109 [1] INFO  SimplyRecord.pushtoAgent [(null)] - Response for : 5 from:http://localhost:4012/v1/sendMainFramerecordersteps is:{"success":true}



2020-05-08 14:42:28,109 [1] INFO  SimplyRecord.pushtoAgent [(null)] - creating a new object for STEPNUMBER:5
2020-05-08 14:42:28,110 [1] INFO  SimplyRecord.CaptureEventListener [(null)] - creating keyboard action
2020-05-08 14:42:28,118 [1] INFO  Emulator.EmulatorControlFinder [(null)] - GetDefaultScreenName - Screen name = Welcome to PUB400.COM * your public IBM i server
2020-05-08 14:42:28,119 [1] INFO  SimplyRecord.CaptureEventListener [(null)] - OnCaptureEvent at keydown
2020-05-08 14:42:28,119 [1] INFO  SimplyRecord.MainForm [(null)] -  Captured Data afterEvery Step 1 :{
  "Position": {
    "iRow": 0,
    "iCol": 0
  },
  "IsProtected": false,
  "Label": null,
  "LabelPosition": null,
  "LabelLength": null,
  "captureScreenshot": false,
  "ClassName": "PCSWS:Pres:00400000",
  "ControlCordinates": "3,107,1360,577",
  "ControlData": "Return",
  "ControlId": "2",
  "ControlName": "",
  "ControlType": null,
  "createdBy": null,
  "CursorLocation": null,
  "customerId": 0,
  "DialogName": null,
  "EventData": null,
  "EventType": "KeyBoardAction",
  "ExeName": "pcsws.exe",
  "name": null,
  "objectId": 0,
  "parameterName": null,
  "Path": "C:\\Program Files (x86)\\IBM\\Personal Communications\\pcsws.exe",
  "projectId": 0,
  "ScreenName": "Welcome to PUB400.COM * your public IBM i server",
  "SessionName": "A",
  "StepNumber": 6,
  "userId": 0,
  "WindowCaption": "Session A - [24 x 80]"
}
2020-05-08 14:42:28,134 [1] INFO  SimplyRecord.pushtoAgent [(null)] - Response for : 6 from:http://localhost:4012/v1/sendMainFramerecordersteps is:{"success":true}



2020-05-08 14:42:28,134 [1] INFO  SimplyRecord.pushtoAgent [(null)] - creating a new object for STEPNUMBER:6
2020-05-08 14:42:37,778 [1] ERROR SimplyRecord.CaptureEventListener [(null)] -  Exception :  FillWindowDetails
System.ComponentModel.Win32Exception (0x80004005): A 32 bit processes cannot access modules of a 64 bit process.
   at System.Diagnostics.NtProcessManager.GetModuleInfos(Int32 processId, Boolean firstModuleOnly)
   at System.Diagnostics.NtProcessManager.GetFirstModuleInfo(Int32 processId)
   at System.Diagnostics.Process.get_MainModule()
   at SimplyRecord.CaptureEventListener.FillWindowDetails(Boolean isKeyEvent) in D:\Balaraj\Mainframe recorder\04-04-2020\mf-rec-playback\Record\SimplyRecord\CaptureEventListener.cs:line 309
2020-05-08 14:42:39,813 [1] INFO  Emulator.EmulatorControlFinder [(null)] - An invalid host presentation space ID was entered
2020-05-08 14:42:41,823 [1] INFO  Emulator.EmulatorControlFinder [(null)] - An invalid host presentation space ID was entered
2020-05-08 14:42:41,823 [1] INFO  Emulator.EmulatorApp [(null)] - trying to connect to session A
2020-05-08 14:42:44,331 [1] INFO  Emulator.EmulatorControlFinder [(null)] - An invalid host presentation space ID was entered
2020-05-08 14:42:44,332 [1] INFO  Emulator.EmulatorApp [(null)] - trying to connect to session A
2020-05-08 14:42:46,842 [1] INFO  Emulator.EmulatorControlFinder [(null)] - An invalid host presentation space ID was entered
2020-05-08 14:42:46,842 [1] INFO  Emulator.EmulatorApp [(null)] - trying to connect to session A
2020-05-08 14:42:49,352 [1] INFO  Emulator.EmulatorControlFinder [(null)] - An invalid host presentation space ID was entered
2020-05-08 14:42:49,352 [1] INFO  Emulator.EmulatorApp [(null)] - trying to connect to session A
2020-05-08 14:42:51,858 [1] INFO  Emulator.EmulatorControlFinder [(null)] - An invalid host presentation space ID was entered
2020-05-08 14:42:51,858 [1] INFO  Emulator.EmulatorApp [(null)] - trying to connect to session A
2020-05-08 14:42:54,367 [1] INFO  Emulator.EmulatorControlFinder [(null)] - An invalid host presentation space ID was entered
2020-05-08 14:42:54,367 [1] INFO  Emulator.EmulatorApp [(null)] - trying to connect to session A
2020-05-08 14:42:56,877 [1] INFO  Emulator.EmulatorControlFinder [(null)] - An invalid host presentation space ID was entered
2020-05-08 14:42:56,877 [1] INFO  Emulator.EmulatorApp [(null)] - trying to connect to session A
2020-05-08 14:42:59,385 [1] INFO  Emulator.EmulatorControlFinder [(null)] - An invalid host presentation space ID was entered
2020-05-08 14:42:59,385 [1] INFO  Emulator.EmulatorApp [(null)] - trying to connect to session A
2020-05-08 14:43:01,894 [1] INFO  Emulator.EmulatorControlFinder [(null)] - An invalid host presentation space ID was entered
2020-05-08 14:43:01,894 [1] INFO  Emulator.EmulatorApp [(null)] - trying to connect to session A
2020-05-08 14:43:04,402 [1] INFO  Emulator.EmulatorControlFinder [(null)] - An invalid host presentation space ID was entered
2020-05-08 14:43:04,402 [1] INFO  Emulator.EmulatorApp [(null)] - trying to connect to session A
2020-05-08 14:43:06,911 [1] INFO  Emulator.EmulatorControlFinder [(null)] - An invalid host presentation space ID was entered
2020-05-08 14:43:06,911 [1] INFO  Emulator.EmulatorApp [(null)] - trying to connect to session A
2020-05-08 14:43:09,421 [1] INFO  Emulator.EmulatorControlFinder [(null)] - An invalid host presentation space ID was entered
2020-05-08 14:43:09,421 [1] INFO  Emulator.EmulatorApp [(null)] - trying to connect to session A
2020-05-08 14:43:11,928 [1] INFO  Emulator.EmulatorControlFinder [(null)] - An invalid host presentation space ID was entered
2020-05-08 14:43:11,928 [1] INFO  Emulator.EmulatorApp [(null)] - trying to connect to session A
2020-05-08 14:43:14,437 [1] INFO  Emulator.EmulatorControlFinder [(null)] - An invalid host presentation space ID was entered
2020-05-08 14:43:14,437 [1] INFO  Emulator.EmulatorApp [(null)] - trying to connect to session A
2020-05-08 14:43:16,946 [1] INFO  Emulator.EmulatorControlFinder [(null)] - An invalid host presentation space ID was entered
2020-05-08 14:43:16,947 [1] INFO  Emulator.EmulatorApp [(null)] - trying to connect to session A
2020-05-08 14:44:03,297 [1] INFO  CaptureAppender [(null)] - IntializeHL2Dll :C:/Program Files (x86)/IBM/Personal Communications/WHLAPI32.dll WHLL 86 loaded
2020-05-08 14:44:03,297 [1] INFO  CaptureAppender [(null)] - IntializeHL2Dll :C:/Program Files (x86)/IBM/Personal Communications/WHLAPI32.dll WHLL 86 loaded
2020-05-08 14:44:03,306 [1] INFO  SimplyRecord.CaptureEventListener [(null)] - loaded:pcsws.exe
2020-05-08 14:44:17,185 [1] INFO  CaptureAppender [(null)] - IntializeHL2Dll :C:/Program Files (x86)/IBM/Personal Communications/WHLAPI32.dll WHLL 86 loaded
2020-05-08 14:44:17,185 [1] INFO  CaptureAppender [(null)] - IntializeHL2Dll :C:/Program Files (x86)/IBM/Personal Communications/WHLAPI32.dll WHLL 86 loaded
2020-05-08 14:44:17,196 [1] INFO  SimplyRecord.CaptureEventListener [(null)] - loaded:pcsws.exe
2020-05-08 14:44:33,704 [1] INFO  Emulator.EmulatorApp [(null)] - C:/Program Files (x86)/IBM/Personal Communications/WHLAPI32.dll:Initialization Success
2020-05-08 14:44:33,777 [1] INFO  Emulator.EmulatorControlFinder [(null)] - :CurrentSessionID : A
2020-05-08 14:44:33,779 [1] INFO  SimplyRecord.CaptureEventListener [(null)] - connected to session:A
2020-05-08 14:44:33,783 [1] INFO  Emulator.EmulatorControlFinder [(null)] - GetDefaultScreenName - Screen name = Welcome to PUB400.COM * your public IBM i server
2020-05-08 14:44:33,787 [1] INFO  SimplyRecord.CaptureEventListener [(null)] - label is=Your user name:
2020-05-08 14:44:37,361 [1] INFO  SimplyRecord.CaptureEventListener [(null)] - type text event
2020-05-08 14:44:37,480 [1] INFO  SimplyRecord.MainForm [(null)] -  Captured Data afterEvery Step 1 :{
  "Position": {
    "iRow": 5,
    "iCol": 25
  },
  "IsProtected": false,
  "Label": "Your user name:",
  "LabelPosition": "5,25",
  "LabelLength": "15",
  "captureScreenshot": false,
  "ClassName": "PCSWS:Pres:00400000",
  "ControlCordinates": "3,107,1360,577",
  "ControlData": "pradeeprv",
  "ControlId": "2",
  "ControlName": "",
  "ControlType": null,
  "createdBy": null,
  "CursorLocation": "345",
  "customerId": 0,
  "DialogName": null,
  "EventData": null,
  "EventType": "TypeText",
  "ExeName": "pcsws.exe",
  "name": null,
  "objectId": 0,
  "parameterName": null,
  "Path": "C:\\Program Files (x86)\\IBM\\Personal Communications\\pcsws.exe",
  "projectId": 0,
  "ScreenName": "Welcome to PUB400.COM * your public IBM i server",
  "SessionName": "A",
  "StepNumber": 2,
  "userId": 0,
  "WindowCaption": "Session A - [24 x 80]"
}
2020-05-08 14:44:37,535 [1] INFO  SimplyRecord.pushtoAgent [(null)] - Response for : 1 from:http://localhost:4012/v1/sendMainFramerecordersteps is:{"success":true}



2020-05-08 14:44:37,536 [1] INFO  SimplyRecord.pushtoAgent [(null)] - creating a new object for STEPNUMBER:1
2020-05-08 14:44:37,902 [1] INFO  SimplyRecord.pushtoAgent [(null)] - Response for : 2 from:http://localhost:4012/v1/sendMainFramerecordersteps is:{"success":true}



2020-05-08 14:44:37,903 [1] INFO  SimplyRecord.pushtoAgent [(null)] - creating a new object for STEPNUMBER:2
2020-05-08 14:44:37,904 [1] INFO  SimplyRecord.CaptureEventListener [(null)] - creating keyboard action
2020-05-08 14:44:37,925 [1] INFO  Emulator.EmulatorControlFinder [(null)] - GetDefaultScreenName - Screen name = Welcome to PUB400.COM * your public IBM i server
2020-05-08 14:44:37,925 [1] INFO  SimplyRecord.CaptureEventListener [(null)] - OnCaptureEvent at keydown
2020-05-08 14:44:37,926 [1] INFO  SimplyRecord.MainForm [(null)] -  Captured Data afterEvery Step 1 :{
  "Position": {
    "iRow": 0,
    "iCol": 0
  },
  "IsProtected": false,
  "Label": null,
  "LabelPosition": null,
  "LabelLength": null,
  "captureScreenshot": false,
  "ClassName": "PCSWS:Pres:00400000",
  "ControlCordinates": "3,107,1360,577",
  "ControlData": "Tab",
  "ControlId": "2",
  "ControlName": "",
  "ControlType": null,
  "createdBy": null,
  "CursorLocation": null,
  "customerId": 0,
  "DialogName": null,
  "EventData": null,
  "EventType": "KeyBoardAction",
  "ExeName": "pcsws.exe",
  "name": null,
  "objectId": 0,
  "parameterName": null,
  "Path": "C:\\Program Files (x86)\\IBM\\Personal Communications\\pcsws.exe",
  "projectId": 0,
  "ScreenName": "Welcome to PUB400.COM * your public IBM i server",
  "SessionName": "A",
  "StepNumber": 3,
  "userId": 0,
  "WindowCaption": "Session A - [24 x 80]"
}
2020-05-08 14:44:37,943 [1] INFO  SimplyRecord.pushtoAgent [(null)] - Response for : 3 from:http://localhost:4012/v1/sendMainFramerecordersteps is:{"success":true}



2020-05-08 14:44:37,943 [1] INFO  SimplyRecord.pushtoAgent [(null)] - creating a new object for STEPNUMBER:3
2020-05-08 14:44:38,159 [1] INFO  SimplyRecord.CaptureEventListener [(null)] - connected to session:A
2020-05-08 14:44:38,160 [1] INFO  Emulator.EmulatorControlFinder [(null)] - GetDefaultScreenName - Screen name = Welcome to PUB400.COM * your public IBM i server
2020-05-08 14:44:38,162 [1] INFO  SimplyRecord.CaptureEventListener [(null)] - label is=Password (max. 128):
2020-05-08 14:44:40,438 [1] INFO  SimplyRecord.CaptureEventListener [(null)] - type text event
2020-05-08 14:44:40,438 [1] INFO  SimplyRecord.MainForm [(null)] -  Captured Data afterEvery Step 1 :{
  "Position": {
    "iRow": 6,
    "iCol": 25
  },
  "IsProtected": false,
  "Label": "Password (max. 128):",
  "LabelPosition": "6,25",
  "LabelLength": "20",
  "captureScreenshot": false,
  "ClassName": "PCSWS:Pres:00400000",
  "ControlCordinates": "3,107,1360,577",
  "ControlData": "simplify456",
  "ControlId": "2",
  "ControlName": "",
  "ControlType": null,
  "createdBy": null,
  "CursorLocation": "425",
  "customerId": 0,
  "DialogName": null,
  "EventData": null,
  "EventType": "TypeText",
  "ExeName": "pcsws.exe",
  "name": null,
  "objectId": 0,
  "parameterName": null,
  "Path": "C:\\Program Files (x86)\\IBM\\Personal Communications\\pcsws.exe",
  "projectId": 0,
  "ScreenName": "Welcome to PUB400.COM * your public IBM i server",
  "SessionName": "A",
  "StepNumber": 4,
  "userId": 0,
  "WindowCaption": "Session A - [24 x 80]"
}
2020-05-08 14:44:40,452 [1] INFO  SimplyRecord.pushtoAgent [(null)] - Response for : 4 from:http://localhost:4012/v1/sendMainFramerecordersteps is:{"success":true}



2020-05-08 14:44:40,452 [1] INFO  SimplyRecord.pushtoAgent [(null)] - creating a new object for STEPNUMBER:4
2020-05-08 14:44:40,452 [1] INFO  SimplyRecord.CaptureEventListener [(null)] - creating keyboard action
2020-05-08 14:44:40,461 [1] INFO  Emulator.EmulatorControlFinder [(null)] - GetDefaultScreenName - Screen name = Welcome to PUB400.COM * your public IBM i server
2020-05-08 14:44:40,461 [1] INFO  SimplyRecord.CaptureEventListener [(null)] - OnCaptureEvent at keydown
2020-05-08 14:44:40,462 [1] INFO  SimplyRecord.MainForm [(null)] -  Captured Data afterEvery Step 1 :{
  "Position": {
    "iRow": 0,
    "iCol": 0
  },
  "IsProtected": false,
  "Label": null,
  "LabelPosition": null,
  "LabelLength": null,
  "captureScreenshot": false,
  "ClassName": "PCSWS:Pres:00400000",
  "ControlCordinates": "3,107,1360,577",
  "ControlData": "Return",
  "ControlId": "2",
  "ControlName": "",
  "ControlType": null,
  "createdBy": null,
  "CursorLocation": null,
  "customerId": 0,
  "DialogName": null,
  "EventData": null,
  "EventType": "KeyBoardAction",
  "ExeName": "pcsws.exe",
  "name": null,
  "objectId": 0,
  "parameterName": null,
  "Path": "C:\\Program Files (x86)\\IBM\\Personal Communications\\pcsws.exe",
  "projectId": 0,
  "ScreenName": "Welcome to PUB400.COM * your public IBM i server",
  "SessionName": "A",
  "StepNumber": 5,
  "userId": 0,
  "WindowCaption": "Session A - [24 x 80]"
}
2020-05-08 14:44:40,474 [1] INFO  SimplyRecord.pushtoAgent [(null)] - Response for : 5 from:http://localhost:4012/v1/sendMainFramerecordersteps is:{"success":true}



2020-05-08 14:44:40,475 [1] INFO  SimplyRecord.pushtoAgent [(null)] - creating a new object for STEPNUMBER:5
2020-05-08 14:44:47,415 [1] ERROR SimplyRecord.CaptureEventListener [(null)] -  Exception :  FillWindowDetails
System.ComponentModel.Win32Exception (0x80004005): A 32 bit processes cannot access modules of a 64 bit process.
   at System.Diagnostics.NtProcessManager.GetModuleInfos(Int32 processId, Boolean firstModuleOnly)
   at System.Diagnostics.NtProcessManager.GetFirstModuleInfo(Int32 processId)
   at System.Diagnostics.Process.get_MainModule()
   at SimplyRecord.CaptureEventListener.FillWindowDetails(Boolean isKeyEvent) in D:\Balaraj\Mainframe recorder\04-04-2020\mf-rec-playback\Record\SimplyRecord\CaptureEventListener.cs:line 309
2020-05-08 14:44:49,444 [1] INFO  Emulator.EmulatorControlFinder [(null)] - An invalid host presentation space ID was entered
2020-05-08 14:44:51,451 [1] INFO  Emulator.EmulatorControlFinder [(null)] - An invalid host presentation space ID was entered
2020-05-08 14:44:51,452 [1] INFO  Emulator.EmulatorApp [(null)] - trying to connect to session A
2020-05-08 14:44:53,963 [1] INFO  Emulator.EmulatorControlFinder [(null)] - An invalid host presentation space ID was entered
2020-05-08 14:44:53,963 [1] INFO  Emulator.EmulatorApp [(null)] - trying to connect to session A
2020-05-08 14:44:56,472 [1] INFO  Emulator.EmulatorControlFinder [(null)] - An invalid host presentation space ID was entered
2020-05-08 14:44:56,472 [1] INFO  Emulator.EmulatorApp [(null)] - trying to connect to session A
2020-05-08 14:44:58,981 [1] INFO  Emulator.EmulatorControlFinder [(null)] - An invalid host presentation space ID was entered
2020-05-08 14:44:58,981 [1] INFO  Emulator.EmulatorApp [(null)] - trying to connect to session A
2020-05-08 14:45:01,490 [1] INFO  Emulator.EmulatorControlFinder [(null)] - An invalid host presentation space ID was entered
2020-05-08 14:45:01,490 [1] INFO  Emulator.EmulatorApp [(null)] - trying to connect to session A
2020-05-08 14:45:03,998 [1] INFO  Emulator.EmulatorControlFinder [(null)] - An invalid host presentation space ID was entered
2020-05-08 14:45:03,998 [1] INFO  Emulator.EmulatorApp [(null)] - trying to connect to session A
2020-05-08 14:45:06,506 [1] INFO  Emulator.EmulatorControlFinder [(null)] - An invalid host presentation space ID was entered
2020-05-08 14:45:06,506 [1] INFO  Emulator.EmulatorApp [(null)] - trying to connect to session A
2020-05-08 14:45:09,014 [1] INFO  Emulator.EmulatorControlFinder [(null)] - An invalid host presentation space ID was entered
2020-05-08 14:45:09,014 [1] INFO  Emulator.EmulatorApp [(null)] - trying to connect to session A
